<svg xmlns="http://www.w3.org/2000/svg" width="11" height="11" viewBox="0 0 11 11">
  <polygon fill="#8B8A8B" fill-rule="evenodd" points="12 12 12 7 13 7 13 12 18 12 18 13 13 13 13 18 12 18 12 13 7 13 7 12" transform="translate(-7 -7)"/>
</svg>
