<svg xmlns="http://www.w3.org/2000/svg" width="96" height="116" viewBox="0 0 96 116">
  <g fill="#E5E5E5" fill-rule="evenodd">
    <path d="M18.4759052,9.06379945 C8.87688959,18.038142 1.55258508e-13,32.5719856 1.54543045e-13,49.5491403 C1.05384012e-13,70.4206655 5.62249799e-14,91.2921906 7.06594735e-15,112.163716 L0,112.163716 C2.02906125e-16,113.82057 1.34314575,115.163716 3,115.163716 L39.7090637,115.163716 C41.365918,115.163716 42.7090637,113.82057 42.7090637,112.163716 L42.7090637,61.7822901 C42.7090637,60.1254358 41.365918,58.7822901 39.7090637,58.7822901 L24.277902,58.782286 C22.6418325,58.782286 21.3074537,57.471413 21.2783797,55.8356019 C21.0475779,42.8498369 22.3236488,33.4620117 25.1065924,27.6721262 C27.5656553,19.3522055 42.7090637,0.87355585 36.7301928,0.08451504 C31.7554863,-0.572004629 25.3758549,2.61287624 18.4759052,9.06379945 Z"/>
    <path d="M18.4759052,9.06379945 C8.87688959,18.038142 1.55258508e-13,32.5719856 1.54543045e-13,49.5491403 C1.05384012e-13,70.4206655 5.62249799e-14,91.2921906 7.06594735e-15,112.163716 L0,112.163716 C2.02906125e-16,113.82057 1.34314575,115.163716 3,115.163716 L39.7090637,115.163716 C41.365918,115.163716 42.7090637,113.82057 42.7090637,112.163716 L42.7090637,61.7822901 C42.7090637,60.1254358 41.365918,58.7822901 39.7090637,58.7822901 L24.277902,58.782286 C22.6418325,58.782286 21.3074537,57.471413 21.2783797,55.8356019 C21.0475779,42.8498369 22.3236488,33.4620117 25.1065924,27.6721262 C27.5656553,19.3522055 42.7090637,0.87355585 36.7301928,0.08451504 C31.7554863,-0.572004629 25.3758549,2.61287624 18.4759052,9.06379945 Z" transform="translate(53)"/>
  </g>
</svg>
